DEFINE TEMP-TABLE {1} NO-UNDO SERIALIZE-NAME 'representativesPublic':U
	FIELD bairro AS CHARACTER INITIAL ? SERIALIZE-NAME 'district':U
	FIELD cep AS CHARACTER INITIAL ? SERIALIZE-NAME 'zipCode':U
	FIELD cgc AS CHARACTER INITIAL ? SERIALIZE-NAME 'cnpj':U
	FIELD cidade AS CHARACTER INITIAL ? SERIALIZE-NAME 'city':U
    FIELD cod-ibge AS CHARACTER INITIAL ? SERIALIZE-NAME 'ibgeCode':U
	FIELD cod-rep AS INTEGER INITIAL ? SERIALIZE-NAME 'code':U
	FIELD Complemento AS CHARACTER INITIAL ? SERIALIZE-NAME 'complement':U
	FIELD dt-deslig AS DATE INITIAL ? SERIALIZE-NAME 'terminDate':U
	FIELD e-mail AS CHARACTER INITIAL ? SERIALIZE-NAME 'email':U
	FIELD endereco AS CHARACTER INITIAL ? SERIALIZE-NAME 'address':U
	FIELD endereco_text AS CHARACTER INITIAL ? SERIALIZE-NAME 'completeAddress':U
	FIELD estado AS CHARACTER INITIAL ? SERIALIZE-NAME 'state':U
	FIELD ind-situacao AS INTEGER INITIAL ? SERIALIZE-NAME 'status':U
	FIELD ins-municipal AS CHARACTER INITIAL ? SERIALIZE-NAME 'municipalRegistration':U
	FIELD inscr-est AS CHARACTER INITIAL ? SERIALIZE-NAME 'stateRegistration':U
	FIELD natureza AS INTEGER INITIAL ? SERIALIZE-NAME 'type':U
    FIELD desc-natureza AS CHARACTER INITIAL ? SERIALIZE-NAME 'descType':U
	FIELD nome AS CHARACTER INITIAL ? SERIALIZE-NAME 'name':U
	FIELD nome-ab-reg AS CHARACTER INITIAL ? SERIALIZE-NAME 'regionCode':U
	FIELD nome-abrev AS CHARACTER INITIAL ? SERIALIZE-NAME 'shortName':U
	FIELD pais AS CHARACTER INITIAL ? SERIALIZE-NAME 'country':U
	FIELD telefax AS CHARACTER INITIAL ? SERIALIZE-NAME 'fax':U
	FIELD telefone1 AS CHARACTER INITIAL ? SERIALIZE-NAME 'phone1':U
    FIELD telefone2 AS CHARACTER INITIAL ? SERIALIZE-NAME 'phone2':U
	FIELD telex AS CHARACTER INITIAL ? SERIALIZE-NAME 'telex':U
	FIELD tipo-repres AS INTEGER INITIAL ? SERIALIZE-NAME 'linkType':U
    FIELD desc-tipo-repres AS CHARACTER INITIAL ? SERIALIZE-NAME 'descLinkType':U
    FIELD dComissaoMax AS DECIMAL INITIAL ? SERIALIZE-NAME 'dComissaoMax':U
.
